…
    ## New names:
    ## * NA -> ...1
    ## * NA -> ...2

``` r
states
```

    ## # A tibble: 50 x 2
    ##    state       abbreviation
    ##    <chr>       <chr>       
    ##  1 Alabama     AL          
    ##  2 Alaska      AK          
    ##  3 Arizona     AZ          
    ##  4 Arkansas    AR          
    ##  5 California  CA          
    ##  6 Colorado    CO          
    ##  7 Connecticut CT          
    ##  8 Delaware    DE          
    ##  9 Florida     FL          
    ## 10 Georgia     GA          
    ## # ... with 40 more rows
…
    ## New names:
    ## * `` -> ...1

``` r
rxJS
```

    ## # A tibble: 3,275 x 1
    ##     rxSeq
    ##     <dbl>
    ##  1 117440
    ##  2 131769
    ##  3 132799
    ##  4 133576
    ##  5  77987
    ##  6  81947
    ##  7  83370
    ##  8  85051
    ##  9  94544
    ## 10 102816
    ## # ... with 3,265 more rows
…
